<svg viewBox="0 0 24 24" xmlns="http://www.w3.org/2000/svg">
    <path d="M19.2 2.81818H18.3V1H16.5V2.81818H7.5V1H5.7V2.81818H4.8C3.81 2.81818 3 3.63636 3 4.63636V19.1818C3 20.1818 3.81 21 4.8 21H19.2C20.19 21 21 20.1818 21 19.1818V4.63636C21 3.63636 20.19 2.81818 19.2 2.81818ZM19.2 19.1818H4.8V7.36364H19.2V19.1818Z" />
</svg>
