<svg viewBox="0 0 24 24" xmlns="http://www.w3.org/2000/svg">
<path d="m12.005,6.51076c2.7613,0 5.0023,2.24 5.0023,5c0,0.65 -0.1301,1.26 -0.3602,1.83l2.9213,2.92c1.5107,-1.26 2.7013,-2.89 3.4316,-4.75c-1.7308,-4.39 -6.0027,-7.5 -11.005,-7.5c-1.4006,0 -2.74125,0.25 -3.98181,0.7l2.16101,2.16c0.5702,-0.23 1.1805,-0.36 1.8308,-0.36zm-10.00455,-2.73l2.28104,2.28l0.46021,0.46c-1.66075,1.29 -2.96135,3.01 -3.7417,4.99c1.73079,4.39 6.00273,7.5 11.005,7.5c1.5507,0 3.0314,-0.3 4.382,-0.84l0.4202,0.42l2.9313,2.92l1.2706,-1.27l-17.73807,-17.73l-1.27058,1.27zm5.53252,5.53l1.5507,1.55c-0.05002,0.21 -0.08003,0.43 -0.08003,0.65c0,1.66 1.34056,3 3.00136,3c0.2201,0 0.4402,-0.03 0.6503,-0.08l1.5507,1.55c-0.6703,0.33 -1.4106,0.53 -2.201,0.53c-2.76125,0 -5.00227,-2.24 -5.00227,-5c0,-0.79 0.20009,-1.53 0.53024,-2.2zm4.31193,-0.78l3.1515,3.15l0.02,-0.16c0,-1.66 -1.3406,-3 -3.0014,-3l-0.1701,0.01z" />
</svg>
